{
  "name": "burdened",
  "title": "Burdened",
  "description": "The Burdened system for FoundryVTT!",
  "version": "1.0.0",
  "minimumCoreVersion": "0.6.5",
  "compatibleCoreVersion": "0.6.6",
  "templateVersion": 2,
  "author": "Aaron Smit",
  "esmodules": ["module/burdened.js"],
  "styles": ["css/burdened.css"],
  "scripts": [],
  "url": "https://gitlab.com/AaronDSmit/burdened",
  "manifest": "https://gitlab.com/AaronDSmit/burdened/raw/master/system.json",
  "download": "https://gitlab.com/AaronDSmit/burdened/-/archive/release-0.6.7/burdened-release-0.6.7.zip",
  "packs": [
    {
      "name": "items",
      "label": "items",
      "system": "burdened",
      "path": "./packs/items.db",
      "entity": "Item"
    },
    {
      "name": "food",
      "label": "food",
      "system": "burdened",
      "path": "./packs/food.db",
      "entity": "Item"
    },
    {
      "name": "lights",
      "label": "lights",
      "system": "burdened",
      "path": "./packs/light.db",
      "entity": "Item"
    },
    {
      "name": "armour",
      "label": "armour",
      "system": "burdened",
      "path": "./packs/armour.db",
      "entity": "Item"
    },
    {
      "name": "weapons",
      "label": "weapons",
      "system": "burdened",
      "path": "./packs/weapons.db",
      "entity": "Item"
    },
    {
      "name": "spells",
      "label": "Spells",
      "system": "burdened",
      "path": "./packs/spells.db",
      "entity": "Item"
    },
    {
      "name": "rules",
      "label": "Rules",
      "system": "burdened",
      "path": "./packs/rules.db",
      "entity": "JournalEntry"
    }
  ],
  "languages": [
    {
      "lang": "en",
      "name": "English",
      "path": "lang/en.json"
    }
  ],
  "gridDistance": 5,
  "gridUnits": "ft",
  "primaryTokenAttribute": "health",
  "url": "",
  "manifest": "",
  "download": "",
  "license": "LICENSE.txt"
}
