{
  "Actor": {
    "types": [ "character", "npc", "enemy" ],
    "templates": {
      "base": {
        "abilities": {
          "str": {
            "value": 10,
            "min": 10,
            "max": 20,
            "modifier": []
          },
          "dex": {
            "value": 10,
            "min": 10,
            "max": 20,
            "modifier": []
          },
          "con": {
            "value": 10,
            "min": 10,
            "max": 20,
            "modifier": []
          },
          "int": {
            "value": 10,
            "min": 10,
            "max": 20,
            "modifier": []
          },
          "wis": {
            "value": 10,
            "min": 10,
            "max": 20,
            "modifier": []
          },
          "cha": {
            "value": 10,
            "min": 10,
            "max": 20,
            "modifier": []
          }
        },
        "attributes": {
          "armour": {
            "value": 11,
            "modifier": []
          },
          "health": {
            "value": 8,
            "min": 0,
            "max": 8
          }
        }
      },
      "creature": {
        "attributes": {
          "speed": {
            "value": 40,
            "modifier": []
          },
          "healingRate": {
            "value": "1d8"
          }
        },
        "currency": {
          "cp": 0,
          "sp": 0,
          "gp": 0
        },
        "morale": {
          "value": 5,
          "max": 9,
          "min": 5
        }
      }
    },
    "character": {
      "templates": [ "base", "creature" ],
      "biography": "",
      "details": {
        "xp": {
          "value": 0,
          "min": 0,
          "max": 10
        },
        "level": 1
      },
      "inventorySlots": {
        "value": 0,
        "max": 10
      },
      "traits": {
        "physique": "",
        "face": "",
        "skin": "",
        "hair": "",
        "clothing": "",
        "virtue": "",
        "vice": "",
        "speech": "",
        "background": "",
        "misfortune": "",
        "alignment": ""
      }
    },
    "npc": {
      "templates": [ "base", "creature" ],
      "biography": "",
      "details": {
        "type": "",
        "environment": "",
        "faction": "",
        "xp": {
          "value": 0,
          "min": 0,
          "max": 10
        },
        "level": 1
      },
      "inventorySlots": {
        "value": 0,
        "max": 10
      }
    },
    "enemy": {
      "templates": [ "base", "creature" ],
      "biography": "",
      "details": {
        "type": "",
        "environment": "",
        "faction": "",
        "xp": {
          "value": 0,
          "min": 0,
          "max": 10
        },
        "level": 1
      },
      "inventorySlots": {
        "value": 0,
        "max": 10
      }
    }
  },
  "Item": {
    "types": [ "item", "light", "armour", "weapon", "spell", "rune" ],
    "templates": {
      "base": {
        "name": "",
        "description": "",
        "quantity": 1,
        "slots": 1,
        "coppers": 1
      },
      "quality": {
        "quality": {
          "value": 1,
          "min": 0,
          "max": 1
        }
      },
      "action": {
        "actionType": null,
        "attackBonus": 0,
        "formula": "",
        "damage": {
          "parts": []
        },
        "range": {
          "value": null,
          "long": null,
          "units": ""
        },
        "uses": {
          "value": 0,
          "max": 0,
          "per": null
        },
        "target": {
          "value": null,
          "units": "",
          "type": ""
        }
      },
      "physicalItem": {
        "hands": 1,
        "equipped": false,
        "rarity": "common"
      },
      "itemStack": {
        "canStack": true,
        "stackPerSlot": 5
      }
    },
    "item": {
      "templates": [ "base", "itemStack" ]
    },
    "light": {
      "templates": [ "base", "physicalItem", "itemStack", "action" ],
      "duration": 1
    },
    "armour": {
      "templates": [ "base", "quality", "physicalItem" ],
      "armourType": "",
      "defence": "=11"
    },
    "weapon": {
      "templates": [ "base", "quality", "physicalItem", "action" ],
      "weaponType": "simpleM",
      "properties": [ "one" ]
    },
    "spell": {
      "templates": [ "base", "physicalItem" ],
      "used": 0,
      "maxUses": 1,
      "level": 0
    },
    "rune": {
      "templates": [ "base", "physicalItem" ],
      "requirement": "",
      "targetPath": "",
      "modifier": ""
    }
  }
}
